…
lego_sales

## # A tibble: 620 x 14
##    first_name last_name    age phone_number set_id number theme  subtheme   year
##    <chr>      <chr>      <dbl> <chr>         <dbl> <chr>  <chr>  <chr>     <dbl>
##  1 Kimberly   Beckstead     24 216-555-2549  24701 76062  DC Co~ Mighty M~  2018
##  2 Neel       Garvin        35 819-555-3189  25626 70595  Ninja~ Rise of ~  2018
##  3 Neel       Garvin        35 819-555-3189  24665 21031  Archi~ <NA>       2018
##  4 Chelsea    Bouchard      41 <NA>          24695 31048  Creat~ <NA>       2018
##  5 Chelsea    Bouchard      41 <NA>          25626 70595  Ninja~ Rise of ~  2018
##  6 Chelsea    Bouchard      41 <NA>          24721 10831  Duplo  <NA>       2018
##  7 Bryanna    Welsh         19 <NA>          24797 75138  Star ~ Episode V  2018
##  8 Bryanna    Welsh         19 <NA>          24701 76062  DC Co~ Mighty M~  2018
##  9 Caleb      Garcia-Wi~    37 907-555-9236  24730 41115  Frien~ <NA>       2018
## 10 Caleb      Garcia-Wi~    37 907-555-9236  25611 21127  Minec~ Minifig-~  2018
## # ... with 610 more rows, and 5 more variables: name <chr>, pieces <dbl>,
## #   us_price <dbl>, image_url <chr>, quantity <dbl>
…
The answer:

  lego_sales_age_group <- lego_sales %>%
  mutate (age_group=case_when(
    between(age,min(age),18)~ "18 and under",
    between(age,19,25)~ "19 - 25",
    between(age,26,35)~ "26 - 35",
    between(age,36,50)~ "36 - 50",
    between(age,51,max(age))~ "51 and over"
        ))
## Displaying the new data frame with the new variable:

lego_sales_age_group

## # A tibble: 620 x 15
##    first_name last_name    age phone_number set_id number theme  subtheme   year
##    <chr>      <chr>      <dbl> <chr>         <dbl> <chr>  <chr>  <chr>     <dbl>
##  1 Kimberly   Beckstead     24 216-555-2549  24701 76062  DC Co~ Mighty M~  2018
##  2 Neel       Garvin        35 819-555-3189  25626 70595  Ninja~ Rise of ~  2018
##  3 Neel       Garvin        35 819-555-3189  24665 21031  Archi~ <NA>       2018
##  4 Chelsea    Bouchard      41 <NA>          24695 31048  Creat~ <NA>       2018
##  5 Chelsea    Bouchard      41 <NA>          25626 70595  Ninja~ Rise of ~  2018
##  6 Chelsea    Bouchard      41 <NA>          24721 10831  Duplo  <NA>       2018
##  7 Bryanna    Welsh         19 <NA>          24797 75138  Star ~ Episode V  2018
##  8 Bryanna    Welsh         19 <NA>          24701 76062  DC Co~ Mighty M~  2018
##  9 Caleb      Garcia-Wi~    37 907-555-9236  24730 41115  Frien~ <NA>       2018
## 10 Caleb      Garcia-Wi~    37 907-555-9236  25611 21127  Minec~ Minifig-~  2018
## # ... with 610 more rows, and 6 more variables: name <chr>, pieces <dbl>,
## #   us_price <dbl>, image_url <chr>, quantity <dbl>, age_group <chr>

## Displaying selected variables from the new generated data frame so that the new variable age_group can be clearly seen:

lego_sales_age_group %>% select(first_name,age,age_group)

## # A tibble: 620 x 3
##    first_name   age age_group
##    <chr>      <dbl> <chr>    
##  1 Kimberly      24 19 - 25  
##  2 Neel          35 26 - 35  
##  3 Neel          35 26 - 35  
##  4 Chelsea       41 36 - 50  
##  5 Chelsea       41 36 - 50  
##  6 Chelsea       41 36 - 50  
##  7 Bryanna       19 19 - 25  
##  8 Bryanna       19 19 - 25  
##  9 Caleb         37 36 - 50  
## 10 Caleb         37 36 - 50  
## # ... with 610 more rows
…
