…
<script src="{{< blogdown/postref >}}index_files/header-attrs/header-attrs.js">

data visualization Exercise

library (dplyr)
starwars

## # A tibble: 87 x 14
##    name    height  mass hair_color  skin_color eye_color birth_year sex   gender
##    <chr>    <int> <dbl> <chr>       <chr>      <chr>          <dbl> <chr> <chr> 
##  1 Luke S~    172    77 blond       fair       blue            19   male  mascu~
##  2 C-3PO      167    75 <NA>        gold       yellow         112   none  mascu~
##  3 R2-D2       96    32 <NA>        white, bl~ red             33   none  mascu~
##  4 Darth ~    202   136 none        white      yellow          41.9 male  mascu~
##  5 Leia O~    150    49 brown       light      brown           19   fema~ femin~
##  6 Owen L~    178   120 brown, grey light      blue            52   male  mascu~
##  7 Beru W~    165    75 brown       light      blue            47   fema~ femin~
##  8 R5-D4       97    32 <NA>        white, red red             NA   none  mascu~
##  9 Biggs ~    183    84 black       light      brown           24   male  mascu~
## 10 Obi-Wa~    182    77 auburn, wh~ fair       blue-gray       57   male  mascu~
## # ... with 77 more rows, and 5 more variables: homeworld <chr>, species <chr>,
## #   films <list>, vehicles <list>, starships <list>
…
we will study mass vs weight relationship through scatter plot

library(ggplot2)
ggplot(starwars, aes(x=height,y=mass))+ geom_point()+ labs(title="Mass Vs Height of Starwars Characers ",x="Height",y="Mass")

<img src="{{< blogdown/postref >}}index_files/figure-html/unnamed-chunk-2-1.png" width="672" />

Anscombe’s

library(Tmisc)
quartet %>%
  group_by (set)

## # A tibble: 44 x 3
## # Groups:   set [4]
##    set       x     y
##    <fct> <int> <dbl>
##  1 I        10  8.04
##  2 I         8  6.95
##  3 I        13  7.58
##  4 I         9  8.81
##  5 I        11  8.33
##  6 I        14  9.96
##  7 I         6  7.24
##  8 I         4  4.26
##  9 I        12 10.8 
## 10 I         7  4.82
## # ... with 34 more rows
…
