…
grouping the data by the vaccine scheme

we will group our data based on the Vaccines scheme and calculate the mean of the daily_vaccinations and arrange the result in descending order to know the most used vaccine scheme

country_vacc %>% group_by(vaccines) %>% 
  drop_na() %>% 
  summarise(mean_daily_vacc=mean(daily_vaccinations))%>%
  arrange(desc(mean_daily_vacc))

## # A tibble: 35 x 2
##    vaccines                                                      mean_daily_vacc
##    <chr>                                                                   <dbl>
##  1 Johnson&Johnson, Moderna, Pfizer/BioNTech                            2129707.
##  2 Covaxin, Oxford/AstraZeneca                                          1825083.
##  3 EpiVacCorona, Sputnik V                                               260009.
##  4 CanSino, Oxford/AstraZeneca, Pfizer/BioNTech, Sinovac, Sputn~         200752.
##  5 Pfizer/BioNTech, Sinovac                                              144037.
##  6 CanSino, Oxford/AstraZeneca, Sinopharm/Beijing, Sinovac, Spu~         141494 
##  7 Oxford/AstraZeneca, Pfizer/BioNTech, Sinovac                          140997.
##  8 Moderna, Oxford/AstraZeneca, Pfizer/BioNTech                          134150.
##  9 Oxford/AstraZeneca, Sinovac                                           129134.
## 10 Johnson&Johnson, Moderna, Oxford/AstraZeneca, Pfizer/BioNTech          80371.
## # ... with 25 more rows
…
